{
    "books": [{
        "id": 1,
        "title": "Divina Commedia",
        "description": "Viaggio di Dante in inferno, purgatorio e paradiso",
        "published": true
    }, {
        "id": 2,
        "title": "Il libro della giungla",
        "description": null,
        "published": true
    }]
}